<svg width="166" height="10" viewBox="0 0 166 10" fill="none" xmlns="http://www.w3.org/2000/svg">
<path d="M4.8 9.40002C7.17483 9.40002 9.10001 7.4748 9.10001 5.09998C9.10001 2.72515 7.17483 0.800049 4.8 0.800049C2.42518 0.800049 0.5 2.72515 0.5 5.09998C0.5 7.4748 2.42518 9.40002 4.8 9.40002Z" fill="#4C4C4C"/>
<path d="M17.3 9.40002C19.6748 9.40002 21.6 7.4748 21.6 5.09998C21.6 2.72515 19.6748 0.800049 17.3 0.800049C14.9252 0.800049 13 2.72515 13 5.09998C13 7.4748 14.9252 9.40002 17.3 9.40002Z" fill="#4C4C4C"/>
<path d="M32.4 9.40002C34.7748 9.40002 36.7 7.4748 36.7 5.09998C36.7 2.72515 34.7748 0.800049 32.4 0.800049C30.0251 0.800049 28.1 2.72515 28.1 5.09998C28.1 7.4748 30.0251 9.40002 32.4 9.40002Z" fill="#4C4C4C"/>
<path d="M43.9 9.40002C46.2748 9.40002 48.2 7.4748 48.2 5.09998C48.2 2.72515 46.2748 0.800049 43.9 0.800049C41.5251 0.800049 39.6 2.72515 39.6 5.09998C39.6 7.4748 41.5251 9.40002 43.9 9.40002Z" fill="#4C4C4C"/>
<path d="M65.8 9.40002C68.1748 9.40002 70.1 7.4748 70.1 5.09998C70.1 2.72515 68.1748 0.800049 65.8 0.800049C63.4252 0.800049 61.5 2.72515 61.5 5.09998C61.5 7.4748 63.4252 9.40002 65.8 9.40002Z" fill="#4C4C4C"/>
<path d="M78.3 9.40002C80.6748 9.40002 82.6 7.4748 82.6 5.09998C82.6 2.72515 80.6748 0.800049 78.3 0.800049C75.9252 0.800049 74 2.72515 74 5.09998C74 7.4748 75.9252 9.40002 78.3 9.40002Z" fill="#4C4C4C"/>
<path d="M90.1001 9.40002C92.4749 9.40002 94.4 7.4748 94.4 5.09998C94.4 2.72515 92.4749 0.800049 90.1001 0.800049C87.7252 0.800049 85.8 2.72515 85.8 5.09998C85.8 7.4748 87.7252 9.40002 90.1001 9.40002Z" fill="#4C4C4C"/>
<path d="M101.5 9.40002C103.875 9.40002 105.8 7.4748 105.8 5.09998C105.8 2.72515 103.875 0.800049 101.5 0.800049C99.1251 0.800049 97.2 2.72515 97.2 5.09998C97.2 7.4748 99.1251 9.40002 101.5 9.40002Z" fill="#4C4C4C"/>
<path d="M125.3 9.40002C127.675 9.40002 129.6 7.4748 129.6 5.09998C129.6 2.72515 127.675 0.800049 125.3 0.800049C122.925 0.800049 121 2.72515 121 5.09998C121 7.4748 122.925 9.40002 125.3 9.40002Z" fill="#4C4C4C"/>
<path d="M137.9 9.40002C140.275 9.40002 142.2 7.4748 142.2 5.09998C142.2 2.72515 140.275 0.800049 137.9 0.800049C135.525 0.800049 133.6 2.72515 133.6 5.09998C133.6 7.4748 135.525 9.40002 137.9 9.40002Z" fill="#4C4C4C"/>
<path d="M149.6 9.40002C151.975 9.40002 153.9 7.4748 153.9 5.09998C153.9 2.72515 151.975 0.800049 149.6 0.800049C147.225 0.800049 145.3 2.72515 145.3 5.09998C145.3 7.4748 147.225 9.40002 149.6 9.40002Z" fill="#4C4C4C"/>
<path d="M161.1 9.40002C163.475 9.40002 165.4 7.4748 165.4 5.09998C165.4 2.72515 163.475 0.800049 161.1 0.800049C158.725 0.800049 156.8 2.72515 156.8 5.09998C156.8 7.4748 158.725 9.40002 161.1 9.40002Z" fill="#4C4C4C"/>
</svg>
