<svg width="261" height="148" viewBox="0 0 261 148" fill="none" xmlns="http://www.w3.org/2000/svg">
<path d="M118.92 15.8496H127.72V18.5298C125.51 18.4898 122.19 18.4499 119.23 18.6099C112.78 18.9699 108.69 24.0001 108.48 31.8301C108.42 33.7201 108.65 35.8 109.04 37.02C111.5 44.83 118.07 45.9 122.56 46.02C124.37 46.07 126.54 46.0598 127.72 46.0498V46.9097C124.72 47.3697 121.26 50.0899 119.19 52.6899C118.52 53.5199 108.76 67.7399 107.77 68.9199C105.05 72.1799 100.71 76.52 92.64 76.52H87.88V75.6597C92.98 75.6097 96.19 72.9096 99.68 69.0996C103.03 65.4296 110.51 54.77 110.51 54.77C112.18 52.39 114.86 49.5199 116.71 48.6699C108.37 48.6699 101.98 40.5296 101.98 32.1396C101.97 22.0496 108.41 15.8496 118.92 15.8496Z" fill="white"/>
<path d="M172.15 75.6699V76.5298H167.39C159.33 76.5298 154.99 72.1897 152.26 68.9297C151.28 67.7497 141.51 53.5297 140.84 52.6997C138.76 50.0997 135.31 47.3599 132.31 46.9199V46.0601C133.47 46.0701 135.65 46.0798 137.47 46.0298C141.97 45.8998 148.53 44.8398 150.99 37.0298C151.37 35.8098 151.6 33.7298 151.55 31.8398C151.34 24.0098 147.25 18.9796 140.8 18.6196C137.84 18.4596 134.53 18.5 132.31 18.54V15.8599H141.11C151.61 15.8599 158.05 22.0597 158.05 32.1597C158.05 40.5497 151.66 48.6899 143.32 48.6899C145.18 49.5399 147.85 52.41 149.52 54.79C149.52 54.79 157 65.4596 160.35 69.1196C163.84 72.9196 167.05 75.6199 172.15 75.6699Z" fill="white"/>
<path d="M120.17 44.1797C120.17 49.2097 120.57 69.3499 126.78 78.9399H126.37C119.01 73.1399 114 59.9397 114 44.1797C114 34.1497 116.03 24.7397 119.74 17.6797C121.65 14.0197 123.93 11.17 126.47 9.25H126.9C120.58 18.78 120.17 39.1197 120.17 44.1797Z" fill="white"/>
<path d="M146.02 44.1797C146.02 59.9397 141.01 73.1399 133.65 78.9399H133.24C139.45 69.3499 139.85 49.2097 139.85 44.1797C139.85 39.1297 139.44 18.78 133.13 9.25H133.56C136.09 11.17 138.37 14.0197 140.28 17.6797C143.99 24.7397 146.02 34.1497 146.02 44.1797Z" fill="white"/>
<path d="M131.5 84.6699C131.5 86.5099 133.02 87.9999 134.97 88.1899V88.1997H125.05V88.1899C127 87.9999 128.54 86.55 128.54 84.71C128.54 84.71 128.54 67.1396 128.54 48.3496V44.04C128.54 23.77 128.53 3.53002 128.53 3.52002C128.53 1.68002 127.01 0.19 125.05 0H134.97C133.03 0.19 131.5 1.68002 131.5 3.52002C131.5 3.53002 131.5 23.77 131.5 44.04V84.6699Z" fill="white"/>
<path d="M11.2 117.9C16.23 117.9 19.31 120.86 19.31 125.7C19.31 129.72 16.25 133.61 12.26 133.61C13.15 134.02 14.42 135.39 15.23 136.53C15.23 136.53 18.81 141.64 20.41 143.39C22.08 145.21 23.61 146.51 26.05 146.53V146.95H23.77C19.91 146.95 17.84 144.87 16.53 143.31C16.06 142.75 11.38 135.95 11.07 135.55C9.98999 134.19 8.77999 132.75 7.25999 132.75V132.37C7.25999 132.37 8.2 132.39 9.45 132.36C11.6 132.3 14.75 131.79 15.92 128.05C16.1 127.47 16.21 126.48 16.18 125.57C16.08 121.82 14.12 119.42 11.03 119.25C8.92 119.13 6.4 119.24 5.87 119.22V143.94C5.9 145.38 7.08 146.55 8.53 146.55H9.05L9.06 146.96H0L0.00999451 146.55H0.529999C1.98 146.55 3.15 145.4 3.19 143.96V120.95C3.16 119.51 1.98 118.34 0.529999 118.34H0.00999451L0 117.93L11.2 117.9Z" fill="white"/>
<path d="M66.93 132.42C66.93 141.48 60.84 147.52 52.02 147.52C43.2 147.52 37.11 141.48 37.11 132.42C37.11 123.36 43.2 117.32 52.02 117.32C60.84 117.32 66.93 123.36 66.93 132.42ZM63.75 132.42C63.75 124.11 59.06 118.56 52.02 118.56C44.98 118.56 40.29 124.1 40.29 132.42C40.29 140.74 44.98 146.28 52.02 146.28C59.06 146.28 63.75 140.74 63.75 132.42Z" fill="white"/>
<path d="M92.16 117.91C97.46 117.91 100.71 120.95 100.71 125.92C100.71 132.24 93.85 135.61 88.64 132.87L88.63 132.48C88.63 132.48 95.45 133.95 97.33 128.01C97.51 127.43 97.62 126.43 97.6 125.51C97.5 121.7 95.54 119.16 92.01 119.16H87.23V143.93C87.26 145.37 88.43 146.54 89.89 146.54H90.41L90.42 146.95H81.34L81.35 146.54H81.87C83.32 146.54 84.5 145.38 84.53 143.93V120.72C84.4 119.38 83.26 118.33 81.89 118.33H81.37L81.36 117.92L92.16 117.91Z" fill="white"/>
<path d="M135.77 146.94H118.57L118.58 146.53H119.11C120.56 146.53 121.74 145.37 121.77 143.92V120.69C121.63 119.36 120.5 118.31 119.13 118.31H118.61L118.6 117.9H130.72C132.51 117.88 134.9 117.47 135.66 117.15V118.36V119.05V122.38L135.24 122.37V121.63C135.24 120.31 134.21 119.24 132.92 119.16H124.46V131.98H131.47C132.58 131.96 133.48 131.05 133.48 129.94V129.33L133.89 129.32V135.88H133.48V135.27C133.48 134.17 132.61 133.27 131.52 133.23H124.47V145.66H130.42C134.81 145.66 136.5 143.39 137.78 140.23H138.19L135.77 146.94Z" fill="white"/>
<path d="M167.18 117.9C172.21 117.9 175.29 120.86 175.29 125.7C175.29 129.72 172.23 133.61 168.24 133.61C169.13 134.02 170.4 135.39 171.21 136.53C171.21 136.53 174.79 141.64 176.39 143.39C178.06 145.21 179.59 146.51 182.03 146.53V146.95H179.75C175.89 146.95 173.82 144.87 172.51 143.31C172.04 142.75 167.36 135.95 167.05 135.55C165.97 134.19 164.76 132.75 163.24 132.75V132.37C163.24 132.37 164.18 132.39 165.43 132.36C167.58 132.3 170.73 131.79 171.9 128.05C172.08 127.47 172.19 126.48 172.16 125.57C172.06 121.82 170.1 119.42 167.01 119.25C164.9 119.13 162.38 119.24 161.85 119.22V143.94C161.88 145.38 163.06 146.55 164.51 146.55H165.03L165.04 146.96H155.98L155.99 146.55H156.51C157.96 146.55 159.13 145.4 159.17 143.96V120.95C159.14 119.51 157.96 118.34 156.51 118.34H155.99L155.98 117.93L167.18 117.9Z" fill="white"/>
<path d="M204.24 117.9C209.27 117.9 212.35 120.86 212.35 125.7C212.35 129.72 209.29 133.61 205.3 133.61C206.19 134.02 207.46 135.39 208.27 136.53C208.27 136.53 211.85 141.64 213.45 143.39C215.12 145.21 216.65 146.51 219.09 146.53V146.95H216.81C212.95 146.95 210.88 144.87 209.57 143.31C209.1 142.75 204.42 135.95 204.11 135.55C203.03 134.19 201.82 132.75 200.3 132.75V132.37C200.3 132.37 201.24 132.39 202.49 132.36C204.64 132.3 207.79 131.79 208.96 128.05C209.14 127.47 209.25 126.48 209.22 125.57C209.12 121.82 207.16 119.42 204.07 119.25C201.96 119.13 199.44 119.24 198.91 119.22V143.94C198.94 145.38 200.12 146.55 201.57 146.55H202.09L202.1 146.96H193.04L193.05 146.55H193.57C195.02 146.55 196.19 145.4 196.23 143.96V120.95C196.2 119.51 195.02 118.34 193.57 118.34H193.05L193.04 117.93L204.24 117.9Z" fill="white"/>
<path d="M260.02 132.45C260.02 141.51 253.93 147.55 245.11 147.55C236.29 147.55 230.2 141.51 230.2 132.45C230.2 123.39 236.29 117.35 245.11 117.35C253.93 117.35 260.02 123.39 260.02 132.45ZM256.84 132.45C256.84 124.14 252.15 118.59 245.11 118.59C238.07 118.59 233.38 124.13 233.38 132.45C233.38 140.77 238.07 146.31 245.11 146.31C252.15 146.31 256.84 140.76 256.84 132.45Z" fill="white"/>
</svg>
