<svg width="526" height="149" viewBox="0 0 526 149" fill="none" xmlns="http://www.w3.org/2000/svg">
<path d="M6.8 50V55.6001H0V54.7002H1.5C2.9 54.7002 4 54.1998 5 53.2998C6 52.3998 6.39999 51.3 6.39999 50H6.8V50ZM6.60001 0.200195L10.5 5.2002L10.6 55.5H6.60001V11.3999C6.60001 8.2999 6.3 4.6001 5.8 0.100098H6.60001V0.200195ZM6.60001 0.200195L56.5 47.2002L57.4 56.7998L7.5 9.5L6.60001 0.200195ZM10.6 50C10.6 51.3 11.1 52.3998 12.1 53.2998C13.1 54.1998 14.2 54.7002 15.6 54.7002H17.1V55.6001H10.3V50H10.6V50ZM53.4 7.1001C53.3 5.8001 52.8 4.6998 51.9 3.7998C50.9 2.8998 49.8 2.5 48.4 2.5H46.9V1.6001H53.7V7.2002H53.4V7.1001ZM57.4 1.6001V45.2998C57.4 47.1998 57.5 49.0998 57.6 50.7998C57.7 52.5998 57.9 54.5998 58.2 56.7998H57.4L53.4 52V1.5H57.4V1.6001ZM57.1 7.1001V1.5H63.9V2.3999H62.4C61.1 2.3999 59.9 2.9002 58.9 3.7002C57.9 4.6002 57.4 5.7 57.4 7H57.1V7.1001Z" fill="#606060"/>
<path d="M75 7.2002H74.8C74.7 5.8002 74.2 4.6998 73.3 3.7998C72.3 2.8998 71.1 2.5 69.6 2.5H68.3V1.6001H76.1L75 7.2002ZM75 49.7998L76.2 55.6001H68.4V54.7002H69.7C71.2 54.7002 72.4 54.1998 73.4 53.2998C74.4 52.2998 74.9 51.1999 74.9 49.8999H75V49.7998ZM80.6 1.6001V55.6001H74.8V1.6001H80.6ZM104.7 1.6001V4.3999H80.4V1.6001H104.7ZM100.6 27.2002V29.8999H80.4V27.2002H100.6ZM104.8 52.7998L104.6 55.6001H80.4V52.7998H104.8ZM109.8 42.7002L104.8 55.6001H91.1L94.2 52.7998C97.2 52.7998 99.6 52.4 101.4 51.5C103.2 50.6 104.7 49.3999 105.9 47.8999C107 46.3999 108 44.6002 108.9 42.7002H109.8V42.7002ZM104.7 0.100098V2.3999L94.4 1.5C96.3 1.5 98.2 1.3 100.3 1C102.5 0.7 103.9 0.400098 104.7 0.100098ZM100.6 22.2998V27.3999H95.9V27.2002C97.2 27.2002 98.1 26.8001 98.7 26.1001C99.3 25.3001 99.6 24.4999 99.6 23.3999V22.2002H100.6V22.2998ZM100.6 29.7002V34.7998H99.6V33.6001C99.6 32.6001 99.3 31.6999 98.7 30.8999C98.1 30.1999 97.2 29.7998 95.9 29.7998V29.6001H100.6V29.7002ZM104.7 4.1001V10.2998H103.7V9C103.7 7.7 103.3 6.6998 102.5 5.7998C101.7 4.8998 100.6 4.5 99.2 4.5V4.2002H104.7V4.1001Z" fill="#606060"/>
<path d="M123.1 7.7998L116.3 7.8999C115.7 6.2999 114.8 5.1 113.6 4C112.4 3 110.8 2.5 108.9 2.5H108.2V1.6001H126.7V2.5H126C125 2.5 124.2 2.9002 123.4 3.7002C122.6 4.5002 122.5 5.7998 123.1 7.7998ZM114.1 2.1001H121.3L135.9 46.5L135.1 56.7002L114.1 2.1001ZM151 0.100098L151.7 7.3999L137.7 46.6001C137.1 48.7001 136.6 50.5 136.3 52C136 53.5 135.8 55 135.7 56.5H135L133.3 48.5L150.1 0H151V0.100098ZM151 0.200195L168.3 44.2002L166.2 56.6001L147.9 9.8999L151 0.200195ZM184.2 2.1001L169.3 46.6001C168.6 48.8001 168.1 50.6001 167.8 52.1001C167.5 53.6001 167.3 55.1001 167.2 56.6001H166.3L165.2 47.7002L179.1 2.1001H184.2ZM177.2 7.8999C177.9 5.9999 177.8 4.5998 177.1 3.7998C176.3 2.9998 175.5 2.5 174.5 2.5H173.8V1.6001H190.3V2.5H189.7C187.8 2.5 186.3 3 185 4C183.7 5 182.8 6.2999 182.3 7.8999H177.2V7.8999Z" fill="#606060"/>
<path d="M56.8 124.4L55.8 136.7C54.2 139.1 52.2 141.2 49.7 142.9C47.2 144.6 44.3 146 41.2 146.9C38 147.8 34.7 148.3 31.1 148.3C25 148.2 19.8 147.1 15.3 144.8C10.8 142.5 7.40003 139.3 5.00003 135.1C2.60003 130.9 1.40002 125.9 1.40002 120.1C1.40002 114.2 2.60003 109.2 5.00003 105C7.40003 100.8 10.8 97.5998 15.3 95.2998C19.8 92.9998 25 91.8999 31.1 91.8999C34.8 91.8999 38.6 92.3998 42.4 93.2998C46.2 94.2998 49.4 95.5998 52.2 97.2998L54.2 110H53.4C52.1 104.5 49.4 100.5 45.4 98.1001C41.4 95.7001 36.6 94.5 31 94.5C26.3 94.5 22.2 95.5001 18.7 97.6001C15.2 99.7001 12.6 102.6 10.7 106.4C8.80003 110.2 7.90002 114.8 7.90002 120C7.90002 125.2 8.80003 129.6 10.7 133.5C12.6 137.3 15.3 140.3 18.8 142.3C22.3 144.4 26.4 145.4 31.1 145.5C35.6 145.5 39.7 144.8 43.3 143.3C46.9 141.8 49.9 139.5 52.2 136.4C54.5 133.3 55.8 129.3 56.1 124.3H56.8V124.4Z" fill="#606060"/>
<path d="M91.6 91.7998C95.8 91.7998 99.7 92.4998 103.4 93.7998C107.1 95.0998 110.3 97.1001 113.1 99.6001C115.9 102.1 118.1 105.1 119.6 108.6C121.2 112.1 121.9 115.9 121.9 120.1C121.9 124.3 121.1 128.1 119.6 131.6C118 135.1 115.9 138 113.1 140.6C110.3 143.2 107.1 145.1 103.4 146.4C99.7 147.7 95.8 148.4 91.6 148.4C87.4 148.4 83.5 147.7 79.8 146.4C76.1 145.1 72.9 143.1 70.1 140.6C67.3 138.1 65.1 135.1 63.6 131.6C62 128.2 61.3 124.3 61.3 120.1C61.3 115.9 62.1 112.1 63.6 108.6C65.2 105.2 67.3 102.2 70.1 99.6001C72.9 97.0001 76.1 95.0998 79.8 93.7998C83.4 92.4998 87.4 91.7998 91.6 91.7998ZM91.6 145.7C96 145.7 100.1 144.6 103.7 142.5C107.3 140.3 110.1 137.3 112.3 133.5C114.4 129.7 115.4 125.2 115.4 120.2C115.4 115.1 114.3 110.6 112.3 106.8C110.2 103 107.3 99.9998 103.7 97.7998C100.1 95.5998 96.1 94.6001 91.6 94.6001C87.2 94.6001 83.2 95.6998 79.6 97.7998C76 99.9998 73.1 102.9 71 106.8C68.9 110.6 67.9 115.1 67.9 120.2C67.9 125.2 68.9 129.7 71 133.5C73.1 137.3 76 140.3 79.6 142.5C83.2 144.6 87.2 145.7 91.6 145.7Z" fill="#606060"/>
<path d="M134.4 98.8999H134.2C134.1 97.4999 133.6 96.3999 132.6 95.3999C131.6 94.4999 130.3 94 128.8 94H127.7V93.1001H134.4V98.8999V98.8999ZM134.4 141.3L135.6 147.1H127.8V146.2H129.1C130.6 146.2 131.8 145.7 132.8 144.8C133.8 143.8 134.3 142.7 134.3 141.4H134.4V141.3ZM140 93.1001V147.1H134.2V93.1001H140ZM139.7 98.8999V93.1001H146.4V94H145.3C143.9 94 142.6 94.4999 141.6 95.3999C140.6 96.2999 140 97.4999 140 98.8999H139.7V98.8999ZM164.2 144.3L164 147.1H139.8V144.3H164.2ZM169.2 134.2L164.2 147.1H150.5L153.6 144.3C156.6 144.3 159 143.9 160.8 143C162.6 142.1 164.1 140.9 165.3 139.4C166.4 137.9 167.4 136.1 168.3 134.2H169.2V134.2Z" fill="#606060"/>
<path d="M179 98.8999H178.8C178.7 97.4999 178.2 96.3999 177.2 95.3999C176.2 94.4999 174.9 94 173.4 94H172.3V93.1001H179V98.8999V98.8999ZM179 141.3L180.2 147.1H172.4V146.2H173.7C175.2 146.2 176.4 145.7 177.4 144.8C178.4 143.8 178.9 142.7 178.9 141.4H179V141.3ZM184.6 93.1001V147.1H178.8V93.1001H184.6ZM184.3 98.8999V93.1001H191V94H189.9C188.5 94 187.2 94.4999 186.2 95.3999C185.2 96.2999 184.6 97.4999 184.6 98.8999H184.3V98.8999ZM208.8 144.3L208.6 147.1H184.4V144.3H208.8ZM213.9 134.2L208.9 147.1H195.2L198.3 144.3C201.3 144.3 203.7 143.9 205.5 143C207.3 142.1 208.8 140.9 210 139.4C211.1 137.9 212.1 136.1 213 134.2H213.9V134.2Z" fill="#606060"/>
<path d="M223.7 98.7998H223.5C223.4 97.3998 222.9 96.2999 222 95.3999C221 94.4999 219.8 94 218.3 94H217V93.1001H224.8L223.7 98.7998ZM223.7 141.3L224.9 147.1H217V146.2H218.3C219.8 146.2 221 145.7 222 144.8C223 143.8 223.5 142.7 223.5 141.4H223.7V141.3ZM229.3 93.1001V147.1H223.5V93.1001H229.3ZM253.4 93.1001V95.8999H229.1V93.1001H253.4ZM249.2 118.7V121.4H229V118.7H249.2ZM253.5 144.3L253.3 147.1H229.1V144.3H253.5ZM258.5 134.2L253.5 147.1H239.8L242.9 144.3C245.9 144.3 248.3 143.9 250.1 143C251.9 142.1 253.4 140.9 254.6 139.4C255.7 137.9 256.7 136.1 257.6 134.2H258.5V134.2ZM253.4 91.7002V94L243.1 93.1001C245 93.1001 246.9 92.9001 249 92.6001C251.2 92.3001 252.6 92.0002 253.4 91.7002ZM249.2 113.8V118.9H244.5V118.7C245.8 118.7 246.7 118.3 247.3 117.6C247.9 116.9 248.2 116 248.2 114.9V113.7H249.2V113.8ZM249.2 121.3V126.4H248.2V125.2C248.2 124.2 247.9 123.3 247.3 122.5C246.7 121.7 245.8 121.4 244.5 121.4V121.2H249.2V121.3ZM253.4 95.6001V101.8H252.4V100.4C252.4 99.0999 252 98.1002 251.2 97.2002C250.4 96.3002 249.3 95.7998 247.9 95.7998V95.5H253.4V95.6001Z" fill="#606060"/>
<path d="M317.5 124.4L316.5 136.7C314.9 139.1 312.9 141.2 310.4 142.9C307.9 144.6 305 146 301.9 146.9C298.7 147.8 295.4 148.3 291.8 148.3C285.7 148.2 280.5 147.1 276 144.8C271.5 142.5 268.1 139.3 265.7 135.1C263.3 130.9 262.1 125.9 262.1 120.1C262.1 114.2 263.3 109.2 265.7 105C268.1 100.8 271.5 97.5998 276 95.2998C280.5 92.9998 285.7 91.8999 291.8 91.8999C295.5 91.8999 299.3 92.3998 303.1 93.2998C306.9 94.2998 310.1 95.5998 312.9 97.2998L314.9 110H314C312.7 104.5 310 100.5 306 98.1001C302 95.7001 297.2 94.5 291.6 94.5C286.9 94.5 282.8 95.5001 279.3 97.6001C275.8 99.7001 273.2 102.6 271.3 106.4C269.4 110.2 268.5 114.8 268.5 120C268.5 125.2 269.4 129.6 271.3 133.5C273.2 137.3 275.9 140.3 279.4 142.3C282.9 144.4 287 145.4 291.7 145.5C296.2 145.5 300.3 144.8 303.9 143.3C307.5 141.8 310.5 139.5 312.8 136.4C315.1 133.3 316.4 129.3 316.7 124.3H317.5V124.4Z" fill="#606060"/>
<path d="M318.8 91.6001C319.3 91.8001 320.2 92.0002 321.3 92.2002C322.4 92.4002 323.7 92.5998 325 92.7998C326.4 92.9998 327.7 93 328.9 93L318.8 93.8999V91.6001V91.6001ZM368.2 93V95.7002H318.8V93H368.2ZM324.3 95.5V95.7002C322.9 95.8002 321.8 96.2001 321 97.1001C320.2 98.0001 319.8 98.9998 319.8 100.3V101.7H318.8V95.5H324.3V95.5ZM340.8 141.3V147.1H334.2V146.2C334.3 146.2 334.6 146.2 335.3 146.2C336.7 146.2 338 145.7 339 144.8C340 143.8 340.6 142.7 340.6 141.4H340.8V141.3ZM346.4 93.3999V147.1H340.5V93.3999H346.4ZM346.2 141.3H346.5C346.6 142.6 347.1 143.8 348.1 144.7C349.1 145.7 350.4 146.1 351.8 146.1H352.8V147H346.2V141.3ZM368.2 91.6001V93.8999L358.1 93C359.3 93 360.6 92.8998 361.9 92.7998C363.3 92.6998 364.5 92.5002 365.6 92.2002C366.8 92.0002 367.7 91.7001 368.2 91.6001ZM368.2 95.5V101.7H367.2V100.3C367.2 98.9998 366.8 98.0001 366 97.1001C365.2 96.2001 364.1 95.8002 362.7 95.7002V95.5H368.2V95.5Z" fill="#606060"/>
<path d="M378.5 98.8999H378.2C378.1 97.4999 377.5 96.3999 376.4 95.3999C375.2 94.4999 373.8 94 372.1 94C372 94 371.6 94 370.8 94V93.1001H378.4V98.8999H378.5ZM378.5 141.3V147.1H370.9V146.2H372.2C373.9 146.2 375.3 145.7 376.5 144.8C377.7 143.8 378.3 142.7 378.3 141.4H378.5V141.3ZM383.9 93.1001V147.1H378.2V93.1001H383.9ZM383.6 98.8999V93.1001H391.2L391.1 94H390C388.3 94 386.9 94.4999 385.7 95.3999C384.5 96.2999 383.9 97.4999 383.9 98.8999H383.6V98.8999ZM383.6 141.3H383.9C384 142.6 384.6 143.8 385.7 144.7C386.9 145.7 388.3 146.1 390 146.1H391.2L391.3 147H383.7V141.3H383.6Z" fill="#606060"/>
<path d="M427.3 91.7998C431.5 91.7998 435.4 92.4998 439.1 93.7998C442.8 95.0998 446 97.1001 448.8 99.6001C451.6 102.1 453.8 105.1 455.3 108.6C456.9 112.1 457.6 115.9 457.6 120.1C457.6 124.3 456.8 128.1 455.3 131.6C453.7 135.1 451.6 138 448.8 140.6C446 143.2 442.8 145.1 439.1 146.4C435.4 147.7 431.5 148.4 427.3 148.4C423.1 148.4 419.2 147.7 415.5 146.4C411.8 145.1 408.6 143.1 405.8 140.6C403 138.1 400.8 135.1 399.3 131.6C397.7 128.2 397 124.3 397 120.1C397 115.9 397.8 112.1 399.3 108.6C400.9 105.2 403 102.2 405.8 99.6001C408.6 97.0001 411.8 95.0998 415.5 93.7998C419.2 92.4998 423.1 91.7998 427.3 91.7998ZM427.3 145.7C431.7 145.7 435.8 144.6 439.4 142.5C443 140.3 445.8 137.3 448 133.5C450.1 129.7 451.1 125.2 451.1 120.2C451.1 115.1 450 110.6 448 106.8C445.9 103 443 99.9998 439.4 97.7998C435.8 95.5998 431.8 94.6001 427.3 94.6001C422.9 94.6001 418.9 95.6998 415.3 97.7998C411.7 99.9998 408.8 102.9 406.7 106.8C404.6 110.6 403.6 115.1 403.6 120.2C403.6 125.2 404.6 129.7 406.7 133.5C408.8 137.3 411.7 140.3 415.3 142.5C419 144.6 423 145.7 427.3 145.7Z" fill="#606060"/>
<path d="M468.5 141.5V147.1H461.7V146.2H463.2C464.6 146.2 465.7 145.7 466.7 144.9C467.7 144 468.1 142.9 468.1 141.6H468.5V141.5ZM468.3 91.7002L472.2 96.7002L472.3 147H468.3V103C468.3 99.9 468 96.2002 467.5 91.7002H468.3ZM468.3 91.7002L518.2 138.7L519.1 148.3L469.2 101L468.3 91.7002ZM472.3 141.5C472.3 142.8 472.8 143.9 473.8 144.8C474.8 145.7 475.9 146.1 477.3 146.1H478.8V147H472V141.4H472.3V141.5ZM515.1 98.7002C515 97.4002 514.5 96.2999 513.6 95.3999C512.6 94.4999 511.5 94 510.1 94H508.6V93.1001H515.4V98.7002H515.1V98.7002ZM519.1 93.1001V136.8C519.1 138.7 519.2 140.6 519.3 142.3C519.4 144.1 519.6 146.1 519.9 148.3H519.1L515.1 143.5V93H519.1V93.1001ZM518.8 98.7002V93.1001H525.6V94H524C522.7 94 521.5 94.4999 520.5 95.3999C519.5 96.2999 519 97.4002 519 98.7002H518.8V98.7002Z" fill="#606060"/>
</svg>
