<svg width="383" height="149" viewBox="0 0 383 149" fill="none" xmlns="http://www.w3.org/2000/svg">
<path d="M10.4025 49.8999V55.5H3.60248V54.5999H5.10248C6.50248 54.5999 7.60248 54.1 8.60248 53.3C9.60248 52.4 10.0025 51.3 10.0025 50H10.4025V49.8999ZM10.2025 0.199951L14.1025 5.19995L14.2025 55.5H10.2025V11.3999C10.2025 8.2999 9.90248 4.59985 9.40248 0.0998535H10.2025V0.199951ZM10.2025 0.199951L60.1025 47.2L61.0025 56.8L11.1025 9.5L10.2025 0.199951ZM14.2025 49.8999C14.2025 51.1999 14.7025 52.3 15.7025 53.2C16.7025 54.1 17.8025 54.5 19.2025 54.5H20.7025V55.3999H13.9025V49.8H14.2025V49.8999ZM57.0025 7.09985C56.9025 5.79985 56.4025 4.70005 55.5025 3.80005C54.5025 2.90005 53.4025 2.3999 52.0025 2.3999H50.5025V1.5H57.3025V7.09985H57.0025V7.09985ZM61.0025 1.5V45.2C61.0025 47.1 61.1025 49 61.2025 50.7C61.3025 52.5 61.5025 54.5 61.8025 56.7H61.0025L57.0025 51.8999V1.3999H61.0025V1.5ZM60.7025 7.09985V1.5H67.5025V2.3999H66.0025C64.7025 2.3999 63.5025 2.90005 62.5025 3.80005C61.5025 4.70005 61.0025 5.79985 61.0025 7.09985H60.7025V7.09985Z" fill="white"/>
<path d="M78.6025 7.19995H78.4025C78.3025 5.79995 77.8025 4.70005 76.9025 3.80005C75.9025 2.90005 74.7025 2.3999 73.2025 2.3999H71.9025V1.5H79.7025L78.6025 7.19995ZM78.6025 49.8L79.8025 55.5999H72.0025V54.7H73.3025C74.8025 54.7 76.0025 54.2 77.0025 53.3C78.0025 52.3 78.5025 51.1999 78.5025 49.8999H78.6025V49.8ZM84.2025 1.5V55.5H78.4025V1.5H84.2025ZM108.302 1.5V4.30005H84.0025V1.5H108.302ZM104.202 27.2V29.8999H84.0025V27.2H104.202ZM108.402 52.7L108.202 55.5H84.0025V52.7H108.402ZM113.402 42.5999L108.402 55.5H94.7025L97.8025 52.7C100.802 52.7 103.202 52.2999 105.002 51.3999C106.802 50.4999 108.302 49.3 109.502 47.8C110.602 46.3 111.602 44.4999 112.502 42.5999H113.402ZM108.302 0.0998535V2.3999L98.0025 1.5C99.9025 1.5 101.802 1.3 103.902 1C106.102 0.7 107.502 0.399854 108.302 0.0998535ZM104.202 22.2V27.3H99.5025V27.0999C100.802 27.0999 101.702 26.7 102.302 26C102.902 25.3 103.202 24.4 103.202 23.3V22.0999H104.202V22.2ZM104.202 29.7V34.8H103.202V33.5999C103.202 32.5999 102.902 31.6999 102.302 30.8999C101.702 30.1999 100.802 29.8 99.5025 29.8V29.5999H104.202V29.7ZM108.302 4V10.2H107.302V8.8999C107.302 7.5999 106.902 6.59995 106.102 5.69995C105.302 4.79995 104.202 4.3999 102.802 4.3999V4.09985H108.302V4Z" fill="white"/>
<path d="M126.702 7.69995L119.902 7.80005C119.302 6.20005 118.402 4.9999 117.202 3.8999C116.002 2.8999 114.402 2.3999 112.502 2.3999H111.802V1.5H130.302V2.3999H129.602C128.602 2.3999 127.802 2.79985 127.002 3.59985C126.202 4.39985 126.102 5.79995 126.702 7.69995ZM117.702 2.09985H124.902L139.502 46.5L138.702 56.7L117.702 2.09985ZM154.602 0.0998535L155.302 7.3999L141.302 46.5999C140.702 48.6999 140.202 50.5 139.902 52C139.602 53.5 139.402 55 139.302 56.5H138.602L136.902 48.5L153.702 0H154.602V0.0998535ZM154.602 0.199951L171.902 44.2L169.802 56.5999L151.502 9.8999L154.602 0.199951ZM187.802 2.09985L172.902 46.5999C172.202 48.7999 171.702 50.5999 171.402 52.0999C171.102 53.5999 170.902 55.0999 170.802 56.5999H169.902L168.802 47.7L182.702 2.09985H187.802ZM180.802 7.80005C181.502 5.90005 181.402 4.49995 180.702 3.69995C179.902 2.89995 179.102 2.3999 178.102 2.3999H177.402V1.5H193.902V2.3999H193.302C191.402 2.3999 189.902 2.8999 188.602 3.8999C187.302 4.8999 186.402 6.20005 185.902 7.80005H180.802Z" fill="white"/>
<path d="M13.4025 140.5C12.7025 142.3 12.8025 143.7 13.7025 144.7C14.5025 145.7 15.5025 146.2 16.6025 146.2H17.3025V147.1H0.102478V146.2H0.802475C2.10247 146.2 3.30248 145.8 4.70248 144.9C6.00248 144 7.20248 142.6 8.10248 140.5H13.4025V140.5ZM30.7025 91.8L31.3025 98L10.7025 146.8H5.00247L26.3025 101.1C27.0025 99.6999 27.5025 98.3999 28.0025 97.3999C28.5025 96.3999 28.9025 95.3 29.2025 94.3C29.6025 93.3 29.8025 92.4999 29.8025 91.8999H30.7025V91.8ZM41.3025 126.1V128.8H17.4025V126.1H41.3025ZM30.7025 91.8L55.5025 146.5H48.4025L29.2025 99.8L30.7025 91.8ZM45.9025 140.5H52.7025C53.6025 142.5 54.7025 144 56.0025 144.9C57.3025 145.8 58.6025 146.2 59.8025 146.2H60.5025V147.1H42.0025V146.2H42.7025C43.7025 146.2 44.6025 145.7 45.5025 144.7C46.5025 143.7 46.6025 142.3 45.9025 140.5Z" fill="white"/>
<path d="M68.1024 98.7H67.9025C67.8025 97.3 67.3025 96.2 66.4025 95.3C65.4025 94.4 64.2024 93.8999 62.8024 93.8999H61.5024V93H69.1024L68.1024 98.7ZM68.1024 141.3L69.2025 147.1H61.6024V146.2H62.9025C64.3025 146.2 65.5024 145.7 66.5024 144.8C67.5024 143.8 68.0024 142.7 68.0024 141.4H68.1024V141.3ZM73.6024 93.0999V147.1H67.8024V93.0999H73.6024ZM73.3024 141.3H73.6024C73.7024 142.6 74.2024 143.8 75.1024 144.7C76.1024 145.7 77.3025 146.1 78.7025 146.1H79.9025L80.0024 147H72.3024L73.3024 141.3ZM84.1024 93.0999C86.9024 93.0999 89.5025 93.3999 91.7025 94.0999C93.9025 94.7999 95.9024 95.7 97.5024 97C99.1024 98.3 100.302 99.7999 101.102 101.6C101.902 103.4 102.402 105.4 102.402 107.7C102.402 110.2 101.802 112.6 100.602 114.7C99.4024 116.9 97.7024 118.6 95.6024 120C93.5024 121.4 91.1025 122.2 88.4025 122.5C89.4025 122.9 90.6024 123.8 92.0024 125.3C93.3024 126.7 94.5024 128.2 95.5024 129.5C97.1024 131.6 98.5025 133.4 99.7025 134.9C100.902 136.4 102.102 137.9 103.302 139.3C104.602 140.7 105.702 141.9 106.802 142.9C107.802 143.9 109.002 144.7 110.202 145.3C111.402 145.9 112.902 146.2 114.502 146.2V147.1H111.702C108.402 147.1 105.702 146.7 103.602 145.8C101.502 145 99.7025 143.9 98.4025 142.7C97.1025 141.5 95.9024 140.3 95.0024 139.1C94.8024 138.8 94.2024 138 93.3024 136.8C92.4024 135.6 91.5024 134.2 90.5024 132.8C89.5024 131.4 88.5025 130.1 87.7025 128.9C86.9025 127.7 86.4025 127 86.2025 126.8C85.0025 125.2 83.6024 123.8 82.1024 122.6C80.5024 121.4 78.9024 120.8 77.1024 120.8V119.9C79.0024 120 80.7025 120 82.2025 119.9C83.9025 119.8 85.6025 119.7 87.2025 119.5C88.9025 119.3 90.5025 118.6 91.9025 117.6C93.4025 116.5 94.5025 114.7 95.4025 112.2C95.6025 111.5 95.8025 110.8 95.9025 109.9C96.0025 109 96.0024 108.1 96.0024 107.1C95.9024 105.4 95.6024 103.9 95.1024 102.6C94.5024 101.3 93.7025 100.1 92.7025 99.2C91.6025 98.2 90.4024 97.4999 89.0024 96.8999C87.6024 96.3999 85.9024 96.1 84.1024 96C81.3024 95.9 78.8025 95.8999 76.7025 95.8999C74.6025 95.9999 73.5024 95.9999 73.5024 95.8999C73.5024 95.7999 73.4024 95.5999 73.3024 95.0999C73.1024 94.6999 72.9024 93.9999 72.6024 93.0999H84.1024V93.0999Z" fill="white"/>
<path d="M120.902 98.7H120.702C120.602 97.3 120.102 96.2 119.202 95.3C118.202 94.4 117.002 93.8999 115.602 93.8999H114.302V93H121.902L120.902 98.7ZM120.902 141.3L122.002 147.1H114.402V146.2H115.702C117.102 146.2 118.302 145.7 119.302 144.8C120.302 143.8 120.802 142.7 120.802 141.4H120.902V141.3ZM126.402 93.0999V147.1H120.602V93.0999H126.402ZM126.102 141.3H126.402C126.502 142.6 127.002 143.8 127.902 144.7C128.902 145.7 130.102 146.1 131.502 146.1H132.702L132.802 147H125.102L126.102 141.3ZM136.902 93.0999C139.702 93.0999 142.302 93.3999 144.502 94.0999C146.702 94.7999 148.702 95.7 150.302 97C151.902 98.3 153.102 99.7999 153.902 101.6C154.702 103.4 155.202 105.4 155.202 107.7C155.202 110.2 154.602 112.6 153.402 114.7C152.202 116.9 150.502 118.6 148.402 120C146.302 121.4 143.902 122.2 141.202 122.5C142.202 122.9 143.402 123.8 144.802 125.3C146.102 126.7 147.302 128.2 148.302 129.5C149.902 131.6 151.302 133.4 152.502 134.9C153.702 136.4 154.902 137.9 156.102 139.3C157.402 140.7 158.502 141.9 159.602 142.9C160.602 143.9 161.802 144.7 163.002 145.3C164.202 145.9 165.702 146.2 167.302 146.2V147.1H164.502C161.202 147.1 158.502 146.7 156.402 145.8C154.302 145 152.502 143.9 151.202 142.7C149.902 141.5 148.702 140.3 147.802 139.1C147.602 138.8 147.002 138 146.102 136.8C145.202 135.6 144.302 134.2 143.302 132.8C142.302 131.4 141.302 130.1 140.502 128.9C139.702 127.7 139.202 127 139.002 126.8C137.802 125.2 136.402 123.8 134.902 122.6C133.302 121.4 131.702 120.8 129.902 120.8V119.9C131.802 120 133.502 120 135.002 119.9C136.702 119.8 138.402 119.7 140.002 119.5C141.702 119.3 143.302 118.6 144.702 117.6C146.202 116.5 147.302 114.7 148.202 112.2C148.402 111.5 148.602 110.8 148.702 109.9C148.802 109 148.802 108.1 148.802 107.1C148.702 105.4 148.402 103.9 147.902 102.6C147.302 101.3 146.502 100.1 145.502 99.2C144.402 98.2 143.202 97.4999 141.802 96.8999C140.402 96.3999 138.702 96.1 136.902 96C134.102 95.9 131.602 95.8999 129.502 95.8999C127.402 95.9999 126.302 95.9999 126.302 95.8999C126.302 95.7999 126.202 95.5999 126.102 95.0999C125.902 94.6999 125.702 93.9999 125.402 93.0999H136.902V93.0999Z" fill="white"/>
<path d="M174.802 98.8H174.502C174.402 97.4 173.802 96.3 172.702 95.3C171.502 94.4 170.102 93.8999 168.402 93.8999C168.302 93.8999 167.902 93.8999 167.102 93.8999V93H174.702V98.8H174.802ZM174.802 141.3V147.1H167.202V146.2H168.502C170.202 146.2 171.602 145.7 172.802 144.8C174.002 143.8 174.602 142.7 174.602 141.4H174.802V141.3ZM180.202 93.0999V147.1H174.502V93.0999H180.202ZM179.902 98.8V93H187.502L187.402 93.8999H186.202C184.502 93.8999 183.102 94.4 181.902 95.3C180.702 96.2 180.102 97.4 180.102 98.8H179.902ZM179.902 141.3H180.202C180.302 142.6 180.902 143.8 182.002 144.7C183.202 145.7 184.602 146.1 186.302 146.1H187.502L187.602 147H180.002V141.3H179.902Z" fill="white"/>
<path d="M203.102 99.5999H196.302C195.402 97.5999 194.302 96.1 193.002 95.2C191.702 94.3 190.402 93.8999 189.202 93.8999H188.502V93H207.002V93.8999H206.302C205.302 93.8999 204.402 94.3999 203.602 95.3999C202.602 96.3999 202.502 97.7999 203.102 99.5999ZM218.302 148.3L193.502 93.5999H200.602L219.802 140.3L218.302 148.3ZM218.302 148.3L217.702 142.1L238.302 93.3H244.002L222.702 139C222.002 140.4 221.502 141.7 221.002 142.7C220.502 143.8 220.102 144.8 219.802 145.8C219.402 146.8 219.202 147.6 219.202 148.2H218.302V148.3ZM235.602 99.5999C236.302 97.7999 236.202 96.3999 235.302 95.3999C234.502 94.3999 233.502 93.8999 232.402 93.8999H231.802V93H248.902V93.8999H248.202C246.902 93.8999 245.602 94.3 244.302 95.2C243.002 96.1 241.802 97.4999 240.902 99.5999H235.602V99.5999Z" fill="white"/>
<path d="M257.802 140.5C257.102 142.3 257.202 143.7 258.102 144.7C258.902 145.7 259.902 146.2 261.002 146.2H261.702V147.1H244.502V146.2H245.202C246.502 146.2 247.702 145.8 249.102 144.9C250.402 144 251.602 142.6 252.502 140.5H257.802V140.5ZM275.202 91.8L275.802 98L255.202 146.8H249.502L270.802 101.1C271.502 99.6999 272.002 98.3999 272.502 97.3999C273.002 96.3999 273.402 95.3 273.702 94.3C274.102 93.3 274.302 92.4999 274.302 91.8999H275.202V91.8ZM285.802 126.1V128.8H261.902V126.1H285.802ZM275.202 91.8L300.002 146.5H292.902L273.702 99.8L275.202 91.8ZM290.402 140.5H297.202C298.102 142.5 299.202 144 300.502 144.9C301.802 145.8 303.102 146.2 304.302 146.2H305.002V147.1H286.602V146.2H287.302C288.302 146.2 289.202 145.7 290.102 144.7C290.902 143.7 291.002 142.3 290.402 140.5Z" fill="white"/>
<path d="M312.602 98.8H312.402C312.302 97.4 311.802 96.3 310.802 95.3C309.802 94.4 308.502 93.8999 307.002 93.8999H305.902V93H312.602V98.8V98.8ZM312.602 141.3L313.802 147.1H306.002V146.2H307.302C308.802 146.2 310.002 145.7 311.002 144.8C312.002 143.8 312.502 142.7 312.502 141.4H312.602V141.3ZM318.202 93.0999V147.1H312.402V93.0999H318.202ZM317.902 98.8V93H324.602V93.8999H323.502C322.102 93.8999 320.802 94.4 319.802 95.3C318.802 96.2 318.202 97.4 318.202 98.8H317.902ZM342.402 144.3L342.202 147.1H318.002V144.3H342.402ZM347.402 134.2L342.402 147.1H328.702L331.802 144.3C334.802 144.3 337.202 143.9 339.002 143C340.802 142.1 342.302 140.9 343.502 139.4C344.602 137.9 345.602 136.1 346.502 134.2H347.402Z" fill="white"/>
<path d="M366.702 91.8C368.402 91.8 369.902 91.9 371.102 92C372.402 92.1 373.502 92.2999 374.402 92.3999C375.302 92.5999 376.102 92.6999 376.802 92.8999C377.502 93.0999 378.102 93.3 378.602 93.5L378.702 102.4H377.602C377.602 99.8999 376.802 97.9999 375.102 96.5999C373.402 95.1999 370.802 94.5 367.302 94.5C364.302 94.5 361.702 95.3 359.602 97C357.502 98.7 356.402 100.7 356.502 103.1C356.502 103.9 356.602 104.7 356.802 105.5C357.002 106.3 357.402 107.1 357.902 107.9C358.402 108.7 359.102 109.5 360.002 110.2L378.202 124.2C379.602 125.3 380.602 126.8 381.302 128.6C382.002 130.4 382.302 132.1 382.402 133.9C382.502 136.5 381.802 139 380.302 141.2C378.902 143.4 376.903 145.2 374.503 146.5C372.103 147.8 369.402 148.4 366.402 148.4C364.702 148.4 362.802 148.2 360.802 147.9C358.802 147.6 356.902 147.1 355.202 146.5C353.502 145.9 352.002 145.1 350.902 144.1C350.702 143.3 350.602 142.2 350.602 140.9C350.602 139.6 350.702 138.2 350.902 136.8C351.102 135.4 351.402 134.1 351.802 132.9H352.902C352.702 135.6 353.002 137.9 354.102 139.8C355.102 141.7 356.602 143.2 358.602 144.2C360.602 145.2 362.903 145.7 365.503 145.6C369.203 145.5 372.102 144.5 374.302 142.8C376.402 141 377.503 138.7 377.503 135.7C377.503 134.3 377.202 133 376.702 131.8C376.202 130.6 375.402 129.5 374.202 128.5L356.202 114.6C354.502 113.2 353.402 111.6 352.802 109.8C352.202 108.1 351.902 106.4 351.902 104.8C351.902 102.3 352.602 100.1 353.902 98.0999C355.202 96.0999 357.002 94.4999 359.302 93.3999C361.602 92.2999 363.902 91.8 366.702 91.8ZM378.602 92.5999L378.702 94.2H372.302V92.5999H378.602Z" fill="white"/>
</svg>
