<svg width="100" height="100" viewBox="0 0 100 100" fill="none" xmlns="http://www.w3.org/2000/svg">
<path d="M30.38 57.5502V57.3402H30.82C30.9704 57.3435 31.1199 57.3159 31.2592 57.2591C31.3985 57.2024 31.5247 57.1176 31.63 57.0102C31.7387 56.9095 31.8251 56.7873 31.8837 56.6512C31.9423 56.5151 31.9716 56.3683 31.97 56.2202V45.2202C31.9893 44.9425 31.9037 44.6677 31.73 44.4502C31.6329 44.3617 31.5194 44.2931 31.3958 44.2485C31.2723 44.2039 31.1412 44.1841 31.01 44.1902H30.22V44.0002C30.49 44.0002 30.76 43.9102 31.02 43.8502C31.2709 43.792 31.518 43.7186 31.76 43.6302C32.0038 43.5345 32.2354 43.4103 32.45 43.2602C32.685 43.0846 32.8996 42.8834 33.09 42.6602H33.3V56.2402C33.2958 56.3872 33.3241 56.5333 33.3829 56.6681C33.4416 56.8029 33.5294 56.9231 33.64 57.0202C33.7468 57.1249 33.8735 57.2072 34.0126 57.2621C34.1517 57.3171 34.3004 57.3436 34.45 57.3402H34.88V57.5502H30.38Z" fill="white"/>
<path d="M42.36 42.6702C43.3152 42.6542 44.2445 42.9806 44.98 43.5902C45.7688 44.2915 46.3529 45.1935 46.67 46.2002C47.4566 48.8463 47.4566 51.6641 46.67 54.3102C46.3583 55.3175 45.7815 56.2224 45 56.9302C44.2559 57.52 43.3344 57.8409 42.385 57.8409C41.4356 57.8409 40.514 57.52 39.77 56.9302C38.9812 56.2249 38.3973 55.3197 38.08 54.3102C37.2933 51.6641 37.2933 48.8463 38.08 46.2002C38.3971 45.1935 38.9811 44.2915 39.77 43.5902C40.4949 42.9826 41.4142 42.6561 42.36 42.6702V42.6702ZM42.36 43.3002C41.8045 43.3271 41.2695 43.5182 40.8227 43.8493C40.3759 44.1804 40.0373 44.6366 39.85 45.1602C39.1672 46.7705 38.8529 48.5129 38.93 50.2602C38.8531 52.0043 39.1674 53.7435 39.85 55.3502C40.0222 55.8775 40.3568 56.3368 40.8058 56.6625C41.2548 56.9882 41.7953 57.1636 42.35 57.1636C42.9047 57.1636 43.4452 56.9882 43.8942 56.6625C44.3432 56.3368 44.6777 55.8775 44.85 55.3502C45.5288 53.7426 45.8397 52.0035 45.76 50.2602C45.8395 48.5137 45.5286 46.7715 44.85 45.1602C44.6628 44.6404 44.327 44.1869 43.8843 43.8563C43.4417 43.5256 42.9116 43.3322 42.36 43.3002V43.3002Z" fill="white"/>
<path d="M54.78 42.6702C55.7352 42.6542 56.6646 42.9805 57.4 43.5902C58.1889 44.2915 58.7729 45.1935 59.09 46.2002C59.8767 48.8463 59.8767 51.6641 59.09 54.3102C58.7727 55.3197 58.1888 56.2249 57.4 56.9302C56.656 57.5199 55.7344 57.8408 54.785 57.8408C53.8356 57.8408 52.9141 57.5199 52.17 56.9302C51.3812 56.2249 50.7973 55.3197 50.48 54.3102C49.6934 51.6641 49.6934 48.8463 50.48 46.2002C50.7971 45.1935 51.3812 44.2915 52.17 43.5902C52.9001 42.9781 53.8274 42.6512 54.78 42.6702V42.6702ZM54.78 43.3002C54.2245 43.3271 53.6895 43.5182 53.2427 43.8493C52.7959 44.1804 52.4574 44.6366 52.27 45.1602C51.5873 46.7705 51.2729 48.5129 51.35 50.2602C51.2731 52.0043 51.5874 53.7434 52.27 55.3502C52.4422 55.8775 52.7768 56.3368 53.2258 56.6625C53.6748 56.9882 54.2153 57.1636 54.77 57.1636C55.3247 57.1636 55.8652 56.9882 56.3142 56.6625C56.7632 56.3368 57.0978 55.8775 57.27 55.3502C57.9488 53.7426 58.2597 52.0035 58.18 50.2602C58.2595 48.5137 57.9487 46.7714 57.27 45.1602C57.0828 44.6403 56.7471 44.1869 56.3044 43.8562C55.8617 43.5256 55.3316 43.3322 54.78 43.3002V43.3002Z" fill="white"/>
<path d="M65.52 42.6703C65.8916 42.6525 66.261 42.7362 66.5886 42.9124C66.9163 43.0885 67.1898 43.3506 67.38 43.6703C67.8164 44.5033 67.9338 45.4669 67.71 46.3803C67.5769 47.3873 67.1329 48.3277 66.44 49.0703C66.1558 49.3825 65.8101 49.6325 65.4246 49.8046C65.0391 49.9767 64.6221 50.0672 64.2 50.0703C63.8284 50.0881 63.459 50.0044 63.1313 49.8282C62.8036 49.6521 62.5301 49.3901 62.34 49.0703C61.8919 48.2412 61.7706 47.2744 62 46.3603C62.1236 45.3467 62.5646 44.3981 63.26 43.6503C63.5482 43.3393 63.898 43.0916 64.287 42.9229C64.6761 42.7542 65.0959 42.6682 65.52 42.6703V42.6703ZM65.43 43.0903C65.1338 43.1075 64.847 43.2001 64.5967 43.3594C64.3464 43.5187 64.141 43.7393 64 44.0003C63.5358 44.7278 63.2324 45.5461 63.11 46.4003C62.9076 47.1841 62.9076 48.0065 63.11 48.7903C63.1749 49.0395 63.3215 49.2596 63.5264 49.4156C63.7313 49.5715 63.9825 49.6542 64.24 49.6503C64.5296 49.6366 64.8112 49.5508 65.0591 49.4006C65.3071 49.2504 65.5137 49.0406 65.66 48.7903C66.1318 48.0703 66.4359 47.2536 66.55 46.4003C66.7519 45.6131 66.7519 44.7876 66.55 44.0003C66.4969 43.7427 66.3564 43.5114 66.1523 43.3455C65.9482 43.1797 65.693 43.0895 65.43 43.0903V43.0903ZM64.5 57.7803L64 57.5503L71.41 43.4603L70.25 44.0003C69.804 44.1967 69.3152 44.2759 68.83 44.2303C68.4166 44.1836 68.016 44.058 67.65 43.8603C67.29 43.6603 66.92 43.4703 66.56 43.2903C66.205 43.1096 65.8072 43.03 65.41 43.0603V42.6403C65.75 42.6366 66.0881 42.6907 66.41 42.8003C66.6893 42.8985 66.9574 43.0259 67.21 43.1803C67.4465 43.3374 67.6938 43.4778 67.95 43.6003C68.2156 43.7317 68.5043 43.8099 68.8 43.8303C69.2054 43.8778 69.6163 43.8298 70 43.6903C70.3471 43.5568 70.6818 43.3928 71 43.2003C71.2575 43.0435 71.5247 42.9032 71.8 42.7803L72.26 42.9603L64.5 57.7803ZM72.06 50.4903C72.4332 50.4707 72.8047 50.5535 73.1343 50.7297C73.4639 50.906 73.739 51.169 73.93 51.4903C74.363 52.3246 74.4768 53.2881 74.25 54.2003C74.1147 55.1938 73.6785 56.1221 73 56.8603C72.7181 57.1754 72.3729 57.4274 71.9869 57.5997C71.6008 57.7721 71.1827 57.8609 70.76 57.8603C70.3859 57.8857 70.0122 57.8054 69.6815 57.6286C69.3509 57.4517 69.0766 57.1855 68.89 56.8603C68.458 56.0365 68.3442 55.0827 68.57 54.1803C68.6916 53.1661 69.1329 52.2169 69.83 51.4703C70.1125 51.1601 70.4569 50.9126 70.841 50.7438C71.2252 50.575 71.6404 50.4886 72.06 50.4903ZM72 50.9003C71.7074 50.9172 71.4236 51.0064 71.174 51.16C70.9244 51.3136 70.7168 51.5267 70.57 51.7803C70.1024 52.5061 69.7987 53.3251 69.68 54.1803C69.4767 54.9606 69.4767 55.78 69.68 56.5603C69.7393 56.8114 69.8827 57.0346 70.0865 57.1929C70.2902 57.3512 70.542 57.4349 70.8 57.4303C71.092 57.4163 71.3759 57.3293 71.6257 57.1774C71.8755 57.0254 72.0833 56.8132 72.23 56.5603C72.6942 55.8411 72.9946 55.0286 73.11 54.1803C73.3172 53.3937 73.3172 52.5669 73.11 51.7803C73.0497 51.5308 72.9077 51.3086 72.7065 51.1491C72.5054 50.9897 72.2567 50.9021 72 50.9003V50.9003Z" fill="white"/>
<path d="M50.27 0.200196C40.4695 0.200197 30.8891 3.10651 22.7404 8.55157C14.5918 13.9966 8.24083 21.7359 4.49081 30.7905C0.740777 39.8452 -0.239894 49.8086 1.67281 59.4206C3.58552 69.0326 8.3057 77.8616 15.2364 84.7909C22.1671 91.7202 30.997 96.4386 40.6094 98.3493C50.2218 100.26 60.185 99.2774 69.2389 95.5256C78.2928 91.7737 86.0308 85.4212 91.4742 77.2714C96.9176 69.1217 99.822 59.5407 99.82 49.7402C99.82 43.2337 98.5383 36.7909 96.048 30.7797C93.5578 24.7686 89.9078 19.3069 85.3065 14.7066C80.7053 10.1062 75.2428 6.45736 69.2312 3.96833C63.2196 1.4793 56.7765 0.198883 50.27 0.200196V0.200196ZM9.47999 60.2002L8.16999 61.7602L7.93999 59.7602L5.99999 58.9402L7.85999 58.1002L7.99999 56.1002L9.37999 57.6002L11.38 57.1102L10.38 58.8902L11.46 60.6202L9.47999 60.2002ZM9.74999 49.9002L10.37 52.6602L7.93999 51.2102L5.49999 52.6402L6.11999 49.8702L3.99999 48.0002L6.80999 47.7402L7.93999 45.1402L9.05999 47.7402L11.88 48.0102L9.74999 49.9002ZM10.26 41.2002L10.05 43.2002L8.71999 41.6602L6.71999 42.0902L7.76999 40.3502L6.76999 38.5902L8.76999 39.0502L10.13 37.5302L10.3 39.5302L12.17 40.3602L10.26 41.2002ZM50.26 82.8602C43.7134 82.8602 37.3139 80.9189 31.8706 77.2818C26.4274 73.6448 22.1848 68.4753 19.6796 62.427C17.1743 56.3788 16.5188 49.7235 17.796 43.3027C19.0732 36.8819 22.2256 30.9841 26.8548 26.355C31.4839 21.7258 37.3817 18.5734 43.8025 17.2962C50.2233 16.019 56.8786 16.6745 62.9268 19.1798C68.975 21.685 74.1446 25.9276 77.7816 31.3708C81.4187 36.8141 83.36 43.2136 83.36 49.7602C83.3547 58.5337 79.8664 66.9461 73.6617 73.149C67.457 79.3518 59.0435 82.8375 50.27 82.8402L50.26 82.8602ZM89.42 39.5902L89.6 37.5902L91 39.0602L93 38.6002L92 40.3602L93 42.1002L91 41.6702L89.68 43.2102L89.47 41.2102L87.59 40.4302L89.42 39.5902ZM91.76 59.7302L91.53 61.7302L90.22 60.1702L88.22 60.5702L89.3 58.8402L88.3 57.0602L90.3 57.5502L91.68 56.0502L91.83 58.0502L93.68 58.8902L91.76 59.7302ZM91.76 51.2102L89.33 52.6602L89.95 49.9002L87.83 48.0002L90.65 47.7302L91.77 45.1302L92.89 47.7302L95.71 47.9902L93.59 49.8602L94.21 52.6302L91.76 51.2102Z" fill="#AFAFAF"/>
<path d="M50.27 15.3401C43.4663 15.3401 36.8154 17.3576 31.1584 21.1375C25.5013 24.9175 21.0922 30.29 18.4885 36.5758C15.8849 42.8616 15.2036 49.7783 16.531 56.4512C17.8583 63.1241 21.1346 69.2536 25.9455 74.0646C30.7564 78.8755 36.8859 82.1518 43.5589 83.4791C50.2318 84.8064 57.1485 84.1252 63.4343 81.5215C69.7201 78.9179 75.0926 74.5088 78.8725 68.8517C82.6525 63.1947 84.67 56.5438 84.67 49.7401C84.67 40.6166 81.0457 31.8669 74.5945 25.4156C68.1432 18.9644 59.3934 15.3401 50.27 15.3401V15.3401ZM50.27 82.8401C43.7234 82.8401 37.3239 80.8988 31.8806 77.2617C26.4373 73.6247 22.1948 68.4551 19.6896 62.4069C17.1843 56.3587 16.5288 49.7034 17.806 43.2826C19.0832 36.8618 22.2356 30.964 26.8647 26.3349C31.4939 21.7057 37.3917 18.5533 43.8125 17.2761C50.2333 15.9989 56.8886 16.6544 62.9368 19.1597C68.985 21.6649 74.1545 25.9074 77.7916 31.3507C81.4287 36.794 83.37 43.1935 83.37 49.7401C83.37 58.5188 79.8827 66.9379 73.6752 73.1453C67.4678 79.3528 59.0486 82.8401 50.27 82.8401V82.8401Z" fill="url(#paint0_linear_2_466)"/>
<path d="M14.9836 29.3159L15.3599 28.5789L17.4558 29.6491C17.5399 30.0276 17.5507 30.4235 17.4881 30.8367C17.4255 31.25 17.2962 31.6485 17.1002 32.0324C16.8232 32.5749 16.4559 33.0035 15.9983 33.3184C15.5356 33.6306 15.033 33.8062 14.4904 33.8453C13.9452 33.8767 13.4116 33.7591 12.8896 33.4925C12.3676 33.2259 11.9594 32.8627 11.6652 32.4027C11.3736 31.9376 11.2211 31.4275 11.2078 30.8722C11.1971 30.3119 11.3316 29.7579 11.6113 29.2102C11.8308 28.7803 12.1011 28.4279 12.4221 28.1531C12.7406 27.8705 13.0982 27.6756 13.4949 27.5685L13.7278 28.2875C13.0937 28.5057 12.6212 28.9194 12.3102 29.5284C12.1011 29.9378 12.0025 30.3521 12.0144 30.7711C12.0238 31.1824 12.1401 31.5612 12.3633 31.9075C12.5814 32.2511 12.8875 32.5236 13.2816 32.7248C13.6706 32.9234 14.0708 33.0116 14.4822 32.9894C14.8885 32.9646 15.2635 32.8367 15.6073 32.6057C15.9537 32.3696 16.2301 32.0494 16.4365 31.6451C16.6822 31.164 16.7813 30.6855 16.734 30.2097L14.9836 29.3159Z" fill="#111111"/>
<path d="M20.7913 24.8707L21.3975 25.3122L18.8199 28.8521L13.9421 25.3003L16.4486 21.8579L17.0549 22.2994L15.0557 25.0449L16.5539 26.1358L18.3349 23.6899L18.9272 24.1212L17.1462 26.5671L18.7211 27.7139L20.7913 24.8707Z" fill="#111111"/>
<path d="M21.5782 16.5334L25.8145 20.8302L25.3111 21.3265L19.574 20.664L22.733 23.8683L22.1192 24.4734L17.8829 20.1766L18.3862 19.6803L24.1234 20.3428L20.9643 17.1386L21.5782 16.5334Z" fill="#111111"/>
<path d="M29.0914 18.4838C28.4281 18.939 27.7815 19.1039 27.1518 18.9785C26.5221 18.8531 25.9634 18.435 25.4756 17.7243L23.5344 14.8955L24.2451 14.4078L26.1669 17.2081C26.8985 18.2742 27.731 18.487 28.6644 17.8464C29.1193 17.5342 29.3782 17.1649 29.441 16.7385C29.5005 16.3073 29.345 15.8216 28.9743 15.2815L27.0526 12.4812L27.742 12.0081L29.6832 14.8368C30.1742 15.5523 30.365 16.2264 30.2555 16.859C30.1428 17.487 29.7548 18.0286 29.0914 18.4838Z" fill="#111111"/>
<path d="M29.7707 10.9278L30.5365 10.532L33.307 15.8924L32.5412 16.2881L29.7707 10.9278Z" fill="#111111"/>
<path d="M37.4514 7.64152L39.5774 13.2886L38.9159 13.5376L33.9423 10.6021L35.5277 14.8132L34.7209 15.1169L32.595 9.46985L33.2565 9.22081L38.2301 12.1563L36.6447 7.94523L37.4514 7.64152Z" fill="#111111"/>
<path d="M45.2096 11.3237L45.3563 12.0592L41.0619 12.9157L39.8817 6.99827L44.0577 6.16533L44.2044 6.90078L40.8737 7.56511L41.2362 9.38261L44.2034 8.79079L44.3467 9.50933L41.3795 10.1012L41.7606 12.0116L45.2096 11.3237Z" fill="#111111"/>
<path d="M51.1708 5.80082C51.9522 5.81645 52.5632 6.01548 53.0039 6.3979C53.4446 6.78032 53.6584 7.29903 53.6453 7.95401C53.6322 8.609 53.3978 9.11875 52.9422 9.48324C52.4866 9.84774 51.8681 10.0222 51.0867 10.0065L49.5957 9.97672L49.5592 11.8038L48.6974 11.7866L48.818 5.75377L51.1708 5.80082ZM51.0758 9.25624C51.6217 9.26715 52.0405 9.16057 52.3324 8.9365C52.6244 8.70668 52.7747 8.37344 52.7835 7.93678C52.7922 7.50012 52.6552 7.16401 52.3725 6.92844C52.09 6.68713 51.6758 6.56101 51.13 6.5501L49.6649 6.5208L49.6107 9.22693L51.0758 9.25624Z" fill="#111111"/>
<path d="M58.5895 12.687L57.6273 10.6368C57.4669 10.6204 57.3414 10.6042 57.2508 10.5883L55.7819 10.3309L55.465 12.1394L54.6159 11.9906L55.6575 6.0472L57.9754 6.45341C58.7452 6.58832 59.3187 6.87842 59.6957 7.32372C60.0727 7.76902 60.2047 8.31431 60.0916 8.9596C60.0113 9.41809 59.8296 9.78882 59.5467 10.0718C59.2637 10.3547 58.8999 10.5331 58.4552 10.6069L59.515 12.8492L58.5895 12.687ZM57.3518 9.86217C57.8895 9.9564 58.3202 9.91228 58.6439 9.72981C58.9676 9.54733 59.1672 9.24099 59.2426 8.8108C59.3179 8.38061 59.234 8.02751 58.9906 7.75149C58.7483 7.46982 58.3582 7.28186 57.8205 7.18763L56.3771 6.93467L55.9084 9.60921L57.3518 9.86217Z" fill="#111111"/>
<path d="M63.0533 14.1003C62.48 13.8943 62.0083 13.5842 61.638 13.1703C61.2697 12.7509 61.0327 12.2718 60.9271 11.7331C60.827 11.1964 60.875 10.6549 61.0713 10.1087C61.2677 9.56248 61.5753 9.1143 61.9943 8.76415C62.4187 8.41595 62.9054 8.20007 63.4545 8.11653C64.0055 8.02757 64.5677 8.08612 65.1409 8.29216C65.7087 8.49626 66.1768 8.808 66.5451 9.2274C66.9154 9.64139 67.1506 10.1168 67.2508 10.6535C67.3529 11.1849 67.3049 11.7263 67.1066 12.2779C66.9083 12.8296 66.5997 13.2804 66.1808 13.6306C65.7637 13.9753 65.2797 14.1922 64.7287 14.2811C64.1796 14.3647 63.6211 14.3044 63.0533 14.1003ZM63.3128 13.3783C63.7292 13.528 64.1363 13.5675 64.5343 13.4968C64.9376 13.428 65.2932 13.2627 65.601 13.0009C65.9162 12.7355 66.1477 12.3974 66.2954 11.9864C66.4431 11.5754 66.4789 11.1699 66.4028 10.7701C66.3341 10.3668 66.1661 10.0102 65.8988 9.7004C65.6369 9.39255 65.2978 9.16379 64.8814 9.01412C64.465 8.86445 64.0524 8.82302 63.6437 8.88984C63.2404 8.95861 62.8811 9.12565 62.5659 9.39096C62.258 9.65282 62.0303 9.98924 61.8825 10.4002C61.7348 10.8113 61.6953 11.2184 61.7641 11.6217C61.8402 12.0216 62.0119 12.3764 62.2791 12.6862C62.5518 12.998 62.8964 13.2287 63.3128 13.3783Z" fill="#111111"/>
<path d="M69.9717 10.406L72.17 11.6841C72.7215 12.0047 73.1473 12.3985 73.4475 12.8655C73.7476 13.3325 73.8989 13.8326 73.9013 14.3658C73.9116 14.8969 73.768 15.4184 73.4705 15.9301C73.173 16.4418 72.7895 16.827 72.3199 17.0858C71.8583 17.3425 71.3503 17.456 70.7959 17.4262C70.2416 17.3964 69.6887 17.2212 69.1372 16.9006L66.9389 15.6224L69.9717 10.406ZM69.4695 16.2262C69.8917 16.4718 70.3095 16.605 70.7228 16.6259C71.141 16.6497 71.5223 16.5656 71.8666 16.3735C72.2138 16.1766 72.5 15.8843 72.7253 15.4968C72.9506 15.1093 73.0615 14.7184 73.058 14.3242C73.0575 13.9251 72.9434 13.5496 72.7158 13.1979C72.4931 12.8491 72.1707 12.552 71.7484 12.3065L70.34 11.4876L68.061 15.4074L69.4695 16.2262Z" fill="#111111"/>
<path d="M74.6359 20.8146C74.0244 20.2916 73.6978 19.7098 73.656 19.069C73.6141 18.4283 73.8734 17.7803 74.4337 17.1252L76.6637 14.5178L77.3188 15.0781L75.1112 17.6593C74.2708 18.642 74.2807 19.5013 75.1411 20.2371C75.5604 20.5957 75.9841 20.7502 76.4123 20.7005C76.8442 20.6464 77.2731 20.3704 77.6989 19.8725L79.9065 17.2913L80.542 17.8348L78.312 20.4422C77.7479 21.1017 77.1462 21.4604 76.5067 21.5185C75.8709 21.5722 75.2473 21.3375 74.6359 20.8146Z" fill="#111111"/>
<path d="M79.3462 25.6013C78.9605 25.1373 78.7131 24.6329 78.6042 24.0883C78.5034 23.5444 78.5438 23.0177 78.7254 22.508C78.9115 21.9947 79.2299 21.5507 79.6807 21.176C80.1315 20.8013 80.624 20.5713 81.1583 20.4859C81.697 20.3968 82.2241 20.4556 82.7397 20.6623C83.2596 20.8653 83.7124 21.1988 84.0981 21.6628C84.3993 22.0252 84.6129 22.4081 84.739 22.8115C84.8694 23.2112 84.9035 23.6163 84.8412 24.0268L84.0654 23.943C84.142 23.289 83.9636 22.7012 83.5302 22.1797C83.2436 21.835 82.9073 21.5877 82.5212 21.4379C82.1351 21.288 81.739 21.2474 81.3327 21.3161C80.9346 21.3855 80.5676 21.5597 80.2317 21.8389C79.8958 22.1181 79.6552 22.4489 79.5097 22.8313C79.3724 23.2145 79.3421 23.6095 79.4188 24.0165C79.4956 24.4235 79.6772 24.7994 79.9637 25.1441C80.3935 25.6611 80.9409 25.9422 81.606 25.9872L81.5465 26.7652C81.1315 26.7514 80.7355 26.6435 80.3583 26.4414C79.9847 26.2437 79.6474 25.9637 79.3462 25.6013Z" fill="#111111"/>
<path d="M86.5367 26.3825L85.4421 24.627L86.0784 24.2302L88.7192 28.4653L88.0828 28.8621L86.9882 27.1066L82.5044 29.9024L82.0528 29.1783L86.5367 26.3825Z" fill="#111111"/>
<path d="M84.4999 33.9297C84.3134 33.5158 84.1957 33.0867 84.1467 32.6423C84.1054 32.2008 84.1373 31.824 84.2425 31.5119L84.9865 31.5265C84.8923 31.821 84.8582 32.1579 84.884 32.537C84.9175 32.919 85.0121 33.2829 85.1679 33.6287C85.3733 34.0846 85.6027 34.3909 85.8561 34.5477C86.1148 34.7022 86.3725 34.7216 86.6293 34.6059C86.8179 34.521 86.9415 34.3896 87.0001 34.212C87.0663 34.0372 87.0896 33.8439 87.0698 33.6322C87.0524 33.4257 87.0087 33.1397 86.9385 32.7742C86.8516 32.3155 86.8001 31.9353 86.7839 31.6337C86.7702 31.3374 86.8242 31.0515 86.9459 30.776C87.0752 30.5035 87.3154 30.2881 87.6664 30.1299C87.9598 29.9978 88.2586 29.9545 88.5629 30.0002C88.8695 30.0512 89.1643 30.202 89.4474 30.4526C89.7305 30.7032 89.9771 31.0617 90.1872 31.528C90.3336 31.8529 90.4357 32.1913 90.4935 32.5435C90.5513 32.8956 90.5523 33.2197 90.4967 33.5159L89.7511 33.5398C89.7939 33.2431 89.793 32.9473 89.7483 32.6523C89.7089 32.3549 89.6325 32.0805 89.5192 31.829C89.3185 31.3836 89.0862 31.0849 88.8223 30.9328C88.5607 30.7859 88.3016 30.7703 88.0449 30.886C87.8562 30.971 87.73 31.1035 87.6662 31.2835C87.6075 31.4612 87.5855 31.6571 87.6 31.8711C87.6221 32.0881 87.6685 32.3729 87.7391 32.7255C87.8261 33.1843 87.8764 33.5619 87.8902 33.8582C87.9039 34.1545 87.8488 34.4378 87.7247 34.708C87.603 34.9835 87.3692 35.1991 87.0234 35.3549C86.7353 35.4847 86.4353 35.5254 86.1234 35.4768C85.8168 35.4258 85.5208 35.2724 85.2353 35.0165C84.9551 34.7583 84.71 34.396 84.4999 33.9297Z" fill="#111111"/>
<path d="M85.2826 70.1954L84.8927 70.9253L82.817 69.8167C82.7398 69.4367 82.7363 69.0407 82.8065 68.6286C82.8768 68.2166 83.0134 67.8205 83.2164 67.4403C83.5034 66.903 83.8785 66.4812 84.3418 66.1749C84.8102 65.8712 85.316 65.7049 85.8592 65.6758C86.4049 65.6545 86.9362 65.7819 87.4532 66.058C87.9703 66.3342 88.3716 66.7049 88.6573 67.1702C88.9403 67.6406 89.0834 68.1535 89.0864 68.7089C89.0868 69.2694 88.9421 69.8208 88.6524 70.3632C88.425 70.789 88.1483 71.1363 87.8222 71.4052C87.4986 71.6819 87.1374 71.8701 86.7388 71.9699L86.5192 71.2467C87.1572 71.0402 87.6373 70.6354 87.9595 70.0322C88.176 69.6266 88.2823 69.2143 88.2781 68.7951C88.2763 68.3837 88.167 68.0029 87.9502 67.6525C87.7385 67.3049 87.4374 67.0269 87.0471 66.8184C86.6619 66.6126 86.2634 66.5171 85.8516 66.5317C85.445 66.549 85.0676 66.67 84.7197 66.8946C84.369 67.1243 84.0867 67.4393 83.8728 67.8398C83.6183 68.3163 83.5104 68.7928 83.549 69.2695L85.2826 70.1954Z" fill="#111111"/>
<path d="M79.3104 74.5487L78.7169 74.0903L81.3931 70.6244L86.1691 74.3121L83.5666 77.6826L82.973 77.2242L85.0487 74.5361L83.5818 73.4034L81.7326 75.7982L81.1527 75.3504L83.0018 72.9556L81.4599 71.765L79.3104 74.5487Z" fill="#111111"/>
<path d="M78.3651 82.9141L74.2307 78.5191L74.7456 78.0348L80.4656 78.8315L77.3826 75.5541L78.0104 74.9635L82.1448 79.3585L81.63 79.8428L75.9099 79.046L78.993 82.3234L78.3651 82.9141Z" fill="#111111"/>
<path d="M70.9145 80.7479C71.5879 80.3076 72.238 80.1572 72.8647 80.2967C73.4915 80.4362 74.0407 80.8666 74.5125 81.5881L76.39 84.4595L75.6686 84.9312L73.8099 82.0887C73.1023 81.0065 72.2747 80.7752 71.3272 81.3948C70.8655 81.6967 70.5984 82.0601 70.5261 82.485C70.4569 82.9148 70.6016 83.4038 70.9601 83.9521L72.8188 86.7946L72.119 87.2522L70.2415 84.3808C69.7666 83.6546 69.5909 82.9764 69.7145 82.3463C69.8412 81.721 70.2412 81.1882 70.9145 80.7479Z" fill="#111111"/>
<path d="M70.0913 88.2775L69.3191 88.6605L66.638 83.2548L67.4103 82.8718L70.0913 88.2775Z" fill="#111111"/>
<path d="M62.3007 91.4128L60.3034 85.719L60.9704 85.485L65.8761 88.5326L64.3867 84.2866L65.2001 84.0013L67.1974 89.6951L66.5304 89.9291L61.6247 86.8815L63.1141 91.1275L62.3007 91.4128Z" fill="#111111"/>
<path d="M54.6713 87.5558L54.5406 86.8173L58.8525 86.0539L59.9044 91.9955L55.7114 92.7379L55.5806 91.9994L58.9249 91.4073L58.6018 89.5824L55.6225 90.1099L55.4948 89.3884L58.4741 88.8609L58.1344 86.9426L54.6713 87.5558Z" fill="#111111"/>
<path d="M48.558 92.9664C47.7771 92.9352 47.1701 92.724 46.7372 92.3329C46.3042 91.9417 46.1008 91.4188 46.127 90.7642C46.1532 90.1096 46.3977 89.6047 46.8605 89.2494C47.3233 88.894 47.9452 88.732 48.7261 88.7632L50.2162 88.8228L50.2892 86.9969L51.1505 87.0313L50.9094 93.0605L48.558 92.9664ZM48.722 89.5136C48.1765 89.4918 47.7556 89.59 47.4593 89.8082C47.1628 90.0321 47.0058 90.3623 46.9883 90.7987C46.9709 91.2351 47.1011 91.5739 47.379 91.815C47.6567 92.062 48.0683 92.1963 48.6138 92.2181L50.078 92.2767L50.1862 89.5722L48.722 89.5136Z" fill="#111111"/>
<path d="M41.2862 85.9022L42.2113 87.9693C42.3714 87.9887 42.4967 88.0071 42.5869 88.0246L44.0509 88.3084L44.4004 86.5059L45.2466 86.67L44.0982 92.5937L41.7879 92.1458C41.0207 91.997 40.4525 91.6966 40.0836 91.2446C39.7146 90.7926 39.5925 90.245 39.7172 89.6019C39.8058 89.1449 39.9941 88.7775 40.2821 88.4997C40.5701 88.2219 40.9371 88.0501 41.383 87.9843L40.3638 85.7233L41.2862 85.9022ZM42.4729 88.7488C41.9369 88.6449 41.5055 88.6813 41.1785 88.8579C40.8516 89.0345 40.6466 89.3372 40.5635 89.7659C40.4803 90.1947 40.5579 90.5493 40.7963 90.8296C41.0335 91.1156 41.4201 91.3106 41.956 91.4145L43.3947 91.6934L43.9115 89.0277L42.4729 88.7488Z" fill="#111111"/>
<path d="M36.8663 84.3492C37.4344 84.5691 37.8985 84.8905 38.2586 85.3134C38.6166 85.7416 38.8419 86.2262 38.9344 86.7673C39.0215 87.3064 38.9603 87.8465 38.7508 88.3878C38.5412 88.9291 38.2228 89.3696 37.7955 89.7095C37.3628 90.0473 36.8709 90.2513 36.32 90.3215C35.7669 90.397 35.2064 90.3249 34.6383 90.105C34.0756 89.8871 33.6152 89.5641 33.2572 89.1359C32.8971 88.713 32.6735 88.2321 32.5864 87.6931C32.4972 87.1594 32.5584 86.6193 32.77 86.0726C32.9816 85.526 33.301 85.0827 33.7284 84.7429C34.1537 84.4083 34.6428 84.2033 35.1958 84.1278C35.7468 84.0576 36.3036 84.1314 36.8663 84.3492ZM36.5894 85.0647C36.1767 84.9049 35.7707 84.8556 35.3711 84.9166C34.9663 84.9756 34.6068 85.1322 34.2926 85.3865C33.9711 85.6441 33.7315 85.9765 33.5738 86.3838C33.4162 86.7911 33.3705 87.1955 33.4369 87.5971C33.4959 88.002 33.6552 88.3625 33.9148 88.6787C34.1691 88.9928 34.5026 89.2298 34.9153 89.3895C35.3279 89.5492 35.7394 89.6007 36.1496 89.5438C36.5545 89.4849 36.9177 89.3266 37.2392 89.069C37.5533 88.8147 37.7892 88.4839 37.9469 88.0766C38.1046 87.6693 38.1539 87.2632 38.095 86.8583C38.0286 86.4568 37.8656 86.0979 37.6059 85.7817C37.3409 85.4634 37.002 85.2244 36.5894 85.0647Z" fill="#111111"/>
<path d="M29.8279 87.9613L27.6585 86.6346C27.1144 86.3018 26.6974 85.8986 26.4078 85.425C26.1181 84.9514 25.978 84.4481 25.9874 83.915C25.989 83.3838 26.1441 82.8657 26.453 82.3607C26.7618 81.8558 27.1538 81.4792 27.629 81.2309C28.0963 80.9845 28.6067 80.8824 29.1602 80.9245C29.7138 80.9667 30.2626 81.1542 30.8068 81.487L32.9761 82.8138L29.8279 87.9613ZM30.4596 82.1538C30.0429 81.8989 29.6282 81.7564 29.2155 81.7263C28.7979 81.6932 28.4149 81.7688 28.0664 81.9531C27.7149 82.1423 27.4222 82.4281 27.1883 82.8105C26.9545 83.1929 26.8349 83.5812 26.8296 83.9753C26.8213 84.3744 26.927 84.7523 27.1467 85.109C27.3615 85.4627 27.6772 85.7669 28.0939 86.0218L29.4838 86.8718L31.8495 83.0038L30.4596 82.1538Z" fill="#111111"/>
<path d="M25.3772 77.4334C25.9772 77.9694 26.2912 78.5581 26.3192 79.1996C26.3472 79.8411 26.0741 80.4833 25.4998 81.1261L23.2142 83.6846L22.5713 83.1104L24.834 80.5775C25.6954 79.6133 25.704 78.754 24.8597 77.9998C24.4483 77.6323 24.028 77.4687 23.5989 77.5092C23.1659 77.5539 22.7312 77.8206 22.2947 78.3091L20.0321 80.842L19.4085 80.2849L21.6941 77.7264C22.2722 77.0793 22.8816 76.7336 23.5221 76.6893C24.1589 76.6494 24.7772 76.8974 25.3772 77.4334Z" fill="#111111"/>
<path d="M20.8332 72.5302C21.2111 73.0006 21.45 73.509 21.5499 74.0554C21.6417 74.6008 21.5925 75.1269 21.4024 75.6334C21.2078 76.1436 20.8821 76.5823 20.4251 76.9494C19.9682 77.3165 19.4719 77.5383 18.9363 77.6149C18.3962 77.695 17.8701 77.6274 17.3581 77.4122C16.8416 77.2006 16.3944 76.8596 16.0164 76.3892C15.7213 76.0218 15.5141 75.6355 15.3947 75.2301C15.2709 74.8282 15.2436 74.4226 15.3128 74.0132L16.087 74.1099C15.9996 74.7625 16.1682 75.3532 16.5929 75.8818C16.8736 76.2312 17.2058 76.4841 17.5893 76.6403C17.9729 76.7966 18.3683 76.8438 18.7757 76.7819C19.1749 76.7191 19.5448 76.551 19.8852 76.2774C20.2257 76.0039 20.4718 75.6771 20.6236 75.2972C20.7673 74.9163 20.8042 74.5218 20.7342 74.1136C20.6642 73.7054 20.4889 73.3266 20.2081 72.9772C19.787 72.453 19.2443 72.1629 18.5801 72.1069L18.6525 71.3299C19.0672 71.3506 19.4614 71.4651 19.8352 71.6734C20.2054 71.8773 20.5381 72.1629 20.8332 72.5302Z" fill="#111111"/>
<path d="M13.6801 71.5719L14.7354 73.3513L14.0903 73.7338L11.5446 69.4409L12.1896 69.0584L13.2449 70.8378L17.7898 68.1426L18.2251 68.8766L13.6801 71.5719Z" fill="#111111"/>
<path d="M15.847 64.0843C16.0253 64.5018 16.1345 64.9332 16.1746 65.3785C16.2072 65.8207 16.1678 66.1968 16.0565 66.5068L15.3129 66.4775C15.4129 66.1848 15.4537 65.8487 15.4354 65.4692C15.4095 65.0865 15.3221 64.7208 15.1732 64.372C14.9768 63.9122 14.7535 63.6014 14.5032 63.4396C14.2477 63.28 13.9904 63.2555 13.7314 63.3661C13.5412 63.4473 13.415 63.5762 13.3528 63.7527C13.2832 63.9261 13.2561 64.1189 13.2717 64.3309C13.285 64.5377 13.3231 64.8245 13.386 65.1913C13.4638 65.6517 13.5078 66.0328 13.5179 66.3347C13.5258 66.6312 13.4662 66.916 13.3391 67.189C13.2044 67.4589 12.96 67.6695 12.6059 67.8207C12.3099 67.947 12.0103 67.9844 11.707 67.9326C11.4015 67.8756 11.1097 67.719 10.8316 67.4628C10.5535 67.2067 10.3141 66.8434 10.1133 66.373C9.97335 66.0453 9.87799 65.7049 9.82716 65.3517C9.77633 64.9985 9.78168 64.6744 9.84321 64.3794L10.5891 64.3703C10.5404 64.666 10.5355 64.9618 10.5743 65.2576C10.6079 65.5557 10.6788 65.8316 10.7871 66.0853C10.9789 66.5345 11.2052 66.8378 11.4661 66.9951C11.7247 67.1471 11.9835 67.1679 12.2425 67.0573C12.4327 66.9761 12.5616 66.8461 12.629 66.6673C12.6911 66.4909 12.717 66.2955 12.7068 66.0811C12.6889 65.8638 12.6482 65.5781 12.5846 65.2242C12.5067 64.7638 12.4638 64.3853 12.4559 64.0887C12.4481 63.7922 12.5088 63.51 12.6382 63.2423C12.7653 62.9694 13.0033 62.7584 13.3521 62.6095C13.6428 62.4854 13.9436 62.4507 14.2544 62.5054C14.5599 62.5625 14.8528 62.7217 15.1332 62.9832C15.4082 63.2469 15.6462 63.6139 15.847 64.0843Z" fill="#111111"/>
<defs>
<linearGradient id="paint0_linear_2_466" x1="24" y1="27.8901" x2="75.92" y2="71.0801" gradientUnits="userSpaceOnUse">
<stop stop-color="#D5D5D5"/>
<stop offset="0.05" stop-color="#E0E0E0"/>
<stop offset="0.21" stop-color="white"/>
<stop offset="0.45" stop-color="#272727"/>
<stop offset="0.67" stop-color="#B7B7B7"/>
<stop offset="1" stop-color="#D5D5D5"/>
</linearGradient>
</defs>
</svg>
